…
### Preparing tidy data

``` r
library(tidyr)
library(dplyr)
StateLottery %>%
  rename('Profit%Edu' = '% Profit...2',
         'Profit%Gen' = '% Profit...4')%>%
  gather(key = "FundUse", value = "State", na.rm = TRUE, c(Education, General))
```

    ## # A tibble: 21 × 4
    ##    `Profit%Edu` `Profit%Gen` FundUse   State      
    ##           <dbl>        <dbl> <chr>     <chr>      
    ##  1           24           21 Education New Mexico
    ##  2           25           22 Education Idaho      
    ##  3           28           24 Education Kentucky   
    ##  4           28           27 Education S. Carolina
    ##  5           28           27 Education Georgia    
    ##  6           29           28 Education Missouri   
    ##  7           29           29 Education Ohio       
    ##  8           31           32 Education Tennessee  
    ##  9           31           32 Education Florida    
    ## 10           35           NA Education California
    ## # … with 11 more rows
…
``` r
null_distribution_2_sample_permute
```

    ## Response: Profit (numeric)
    ## Explanatory: FundUse (factor)
    ## Null Hypothesis: independence
    ## # A tibble: 1,000 × 2
    ##    replicate    stat
    ##        <int>   <dbl>
    ##  1         1 -1.98  
    ##  2         2 -0.450
    ##  3         3  1.28  
    ##  4         4 -0.445
    ##  5         5  0.344
    ##  6         6  0.321
    ##  7         7 -0.677
    ##  8         8  0.239
    ##  9         9 -0.0893
    ## 10        10  0.997
    ## # … with 990 more rows
…
